C:\Users\kaandrey\Documents\hadoop\hadoop-jar\wordcount\src\main\java\WordCount\MapForWordCount.java
C:\Users\kaandrey\Documents\hadoop\hadoop-jar\wordcount\src\main\java\WordCount\WordCountMain.java
C:\Users\kaandrey\Documents\hadoop\hadoop-jar\wordcount\src\main\java\WordCount\ReduceForWordCount.java
